build/dump.vcd
$date
	Sat Mar 28 15:33:13 2026
$end
$version
	Icarus Verilog
$end
$timescale
	1s
$end
$scope module imuldiv_MulDivReqMsgToBits $end
$var wire 32 ! a [31:0] $end
$var wire 32 " b [31:0] $end
$var wire 3 # func [2:0] $end
$var wire 67 $ bits [66:0] $end
$upscope $end
$scope module imuldiv_MulDivReqMsgToStr $end
$var wire 67 % msg [66:0] $end
$var wire 3 & func [2:0] $end
$var wire 32 ' b [31:0] $end
$var wire 32 ( a [31:0] $end
$var parameter 3 ) div $end
$var parameter 3 * divu $end
$var parameter 3 + mul $end
$var parameter 3 , rem $end
$var parameter 3 - remu $end
$var reg 160 . full_str [159:0] $end
$var reg 16 / tiny_str [15:0] $end
$upscope $end
$scope module tester $end
$var wire 1 0 t0_done $end
$var reg 1 1 clk $end
$var reg 1024 2 next_test_case_num [1023:0] $end
$var reg 1 3 t0_reset $end
$var reg 1024 4 test_case_num [1023:0] $end
$var reg 2 5 verbose [1:0] $end
$scope module t0 $end
$var wire 1 1 clk $end
$var wire 1 0 done $end
$var wire 1 3 reset $end
$var wire 1 6 src_val $end
$var wire 1 7 src_rdy $end
$var wire 3 8 src_msg_fn [2:0] $end
$var wire 32 9 src_msg_b [31:0] $end
$var wire 32 : src_msg_a [31:0] $end
$var wire 67 ; src_msg [66:0] $end
$var wire 1 < src_done $end
$var wire 1 = sink_val $end
$var wire 1 > sink_rdy $end
$var wire 64 ? sink_msg [63:0] $end
$var wire 1 @ sink_done $end
$var reg 1 A stall_mult1 $end
$scope module msgfrombits $end
$var wire 3 B func [2:0] $end
$var wire 67 C bits [66:0] $end
$var wire 32 D b [31:0] $end
$var wire 32 E a [31:0] $end
$upscope $end
$scope module muldiv $end
$var wire 1 1 clk $end
$var wire 1 F muldivreq_go $end
$var wire 32 G muldivreq_msg_a [31:0] $end
$var wire 32 H muldivreq_msg_b [31:0] $end
$var wire 3 I muldivreq_msg_fn [2:0] $end
$var wire 1 = muldivresp_val $end
$var wire 1 3 reset $end
$var wire 1 J sign $end
$var wire 1 K stall $end
$var wire 1 A stall_mult1 $end
$var wire 64 L result0 [63:0] $end
$var wire 32 M remainderu [31:0] $end
$var wire 32 N remainder_raw [31:0] $end
$var wire 32 O remainder [31:0] $end
$var wire 32 P quotientu [31:0] $end
$var wire 32 Q quotient_raw [31:0] $end
$var wire 32 R quotient [31:0] $end
$var wire 64 S product_raw [63:0] $end
$var wire 64 T product [63:0] $end
$var wire 1 > muldivresp_rdy $end
$var wire 64 U muldivresp_msg_result [63:0] $end
$var wire 1 6 muldivreq_val $end
$var wire 1 7 muldivreq_rdy $end
$var wire 32 V b_unsign [31:0] $end
$var wire 32 W a_unsign [31:0] $end
$var reg 32 X a_reg [31:0] $end
$var reg 32 Y b_reg [31:0] $end
$var reg 3 Z fn_reg [2:0] $end
$var reg 64 [ result1_reg [63:0] $end
$var reg 64 \ result2_reg [63:0] $end
$var reg 64 ] result3_reg [63:0] $end
$var reg 1 ^ val0_reg $end
$var reg 1 _ val1_reg $end
$var reg 1 ` val2_reg $end
$var reg 1 a val3_reg $end
$upscope $end
$scope module sink $end
$var wire 1 1 clk $end
$var wire 64 b msg [63:0] $end
$var wire 1 3 reset $end
$var wire 1 = val $end
$var wire 1 c sink_val $end
$var wire 1 d sink_rdy $end
$var wire 64 e sink_msg [63:0] $end
$var wire 1 > rdy $end
$var wire 1 @ done $end
$var parameter 32 f p_max_delay $end
$var parameter 32 g p_mem_sz $end
$var parameter 32 h p_msg_sz $end
$scope module rand_delay $end
$var wire 1 1 clk $end
$var wire 64 i in_msg [63:0] $end
$var wire 1 = in_val $end
$var wire 64 j out_msg [63:0] $end
$var wire 1 3 reset $end
$var wire 1 k zero_cycle_delay $end
$var wire 32 l rand_delay [31:0] $end
$var wire 1 d out_rdy $end
$var parameter 1 m c_state_delay $end
$var parameter 1 n c_state_idle $end
$var parameter 32 o c_state_sz $end
$var parameter 32 p p_max_delay $end
$var parameter 32 q p_msg_sz $end
$var reg 1 > in_rdy $end
$var reg 1 c out_val $end
$var reg 1 r rand_delay_en $end
$var reg 32 s rand_delay_next [31:0] $end
$var reg 32 t rand_num [31:0] $end
$var reg 1 u state $end
$var reg 1 v state_next $end
$scope begin genblk1 $end
$upscope $end
$scope module rand_delay_pf $end
$var wire 1 1 clk $end
$var wire 32 w d_p [31:0] $end
$var wire 1 r en_p $end
$var wire 1 3 reset_p $end
$var parameter 32 x RESET_VALUE $end
$var parameter 32 y W $end
$var reg 32 z q_np [31:0] $end
$upscope $end
$upscope $end
$scope module sink $end
$var wire 1 1 clk $end
$var wire 1 { go $end
$var wire 1 | index_en $end
$var wire 64 } msg [63:0] $end
$var wire 1 3 reset $end
$var wire 1 c val $end
$var wire 1 d rdy $end
$var wire 10 ~ index_next [9:0] $end
$var wire 10 !" index [9:0] $end
$var wire 1 @ done $end
$var parameter 32 "" c_physical_addr_sz $end
$var parameter 32 #" p_mem_sz $end
$var parameter 32 $" p_msg_sz $end
$var reg 2 %" verbose [1:0] $end
$scope module index_pf $end
$var wire 1 1 clk $end
$var wire 10 &" d_p [9:0] $end
$var wire 1 | en_p $end
$var wire 1 3 reset_p $end
$var parameter 10 '" RESET_VALUE $end
$var parameter 32 (" W $end
$var reg 10 )" q_np [9:0] $end
$upscope $end
$upscope $end
$upscope $end
$scope module src $end
$var wire 1 1 clk $end
$var wire 1 7 rdy $end
$var wire 1 3 reset $end
$var wire 1 6 val $end
$var wire 1 *" src_val $end
$var wire 1 +" src_rdy $end
$var wire 67 ," src_msg [66:0] $end
$var wire 67 -" msg [66:0] $end
$var wire 1 < done $end
$var parameter 32 ." p_max_delay $end
$var parameter 32 /" p_mem_sz $end
$var parameter 32 0" p_msg_sz $end
$scope module rand_delay $end
$var wire 1 1 clk $end
$var wire 67 1" out_msg [66:0] $end
$var wire 1 7 out_rdy $end
$var wire 1 3 reset $end
$var wire 1 2" zero_cycle_delay $end
$var wire 32 3" rand_delay [31:0] $end
$var wire 1 *" in_val $end
$var wire 67 4" in_msg [66:0] $end
$var parameter 1 5" c_state_delay $end
$var parameter 1 6" c_state_idle $end
$var parameter 32 7" c_state_sz $end
$var parameter 32 8" p_max_delay $end
$var parameter 32 9" p_msg_sz $end
$var reg 1 +" in_rdy $end
$var reg 1 6 out_val $end
$var reg 1 :" rand_delay_en $end
$var reg 32 ;" rand_delay_next [31:0] $end
$var reg 32 <" rand_num [31:0] $end
$var reg 1 =" state $end
$var reg 1 >" state_next $end
$scope begin genblk1 $end
$upscope $end
$scope module rand_delay_pf $end
$var wire 1 1 clk $end
$var wire 32 ?" d_p [31:0] $end
$var wire 1 :" en_p $end
$var wire 1 3 reset_p $end
$var parameter 32 @" RESET_VALUE $end
$var parameter 32 A" W $end
$var reg 32 B" q_np [31:0] $end
$upscope $end
$upscope $end
$scope module src $end
$var wire 1 1 clk $end
$var wire 1 C" go $end
$var wire 1 D" index_en $end
$var wire 67 E" msg [66:0] $end
$var wire 1 +" rdy $end
$var wire 1 3 reset $end
$var wire 1 *" val $end
$var wire 10 F" index_next [9:0] $end
$var wire 10 G" index [9:0] $end
$var wire 1 < done $end
$var parameter 32 H" c_physical_addr_sz $end
$var parameter 32 I" p_mem_sz $end
$var parameter 32 J" p_msg_sz $end
$scope module index_pf $end
$var wire 1 1 clk $end
$var wire 10 K" d_p [9:0] $end
$var wire 1 D" en_p $end
$var wire 1 3 reset_p $end
$var parameter 10 L" RESET_VALUE $end
$var parameter 32 M" W $end
$var reg 10 N" q_np [9:0] $end
$upscope $end
$upscope $end
$upscope $end
$upscope $end
$upscope $end
$scope module vc_DFF_nf $end
$var wire 1 O" clk $end
$var wire 1 P" d_p $end
$var parameter 32 Q" W $end
$var reg 1 R" q_np $end
$upscope $end
$scope module vc_DFF_pf $end
$var wire 1 S" clk $end
$var wire 1 T" d_p $end
$var parameter 32 U" W $end
$var reg 1 V" q_np $end
$upscope $end
$scope module vc_EDFF_nf $end
$var wire 1 W" clk $end
$var wire 1 X" d_n $end
$var wire 1 Y" en_n $end
$var parameter 32 Z" W $end
$var reg 1 [" q_pn $end
$upscope $end
$scope module vc_EDFF_pf $end
$var wire 1 \" clk $end
$var wire 1 ]" d_p $end
$var wire 1 ^" en_p $end
$var parameter 32 _" W $end
$var reg 1 `" q_np $end
$upscope $end
$scope module vc_ELatch_hl $end
$var wire 1 a" clk $end
$var wire 1 b" d_n $end
$var wire 1 c" en_p $end
$var parameter 32 d" W $end
$var reg 1 e" en_latched_pn $end
$var reg 1 f" q_np $end
$upscope $end
$scope module vc_ELatch_ll $end
$var wire 1 g" clk $end
$var wire 1 h" d_p $end
$var wire 1 i" en_n $end
$var parameter 32 j" W $end
$var reg 1 k" en_latched_np $end
$var reg 1 l" q_pn $end
$upscope $end
$scope module vc_Latch_hl $end
$var wire 1 m" clk $end
$var wire 1 n" d_n $end
$var parameter 32 o" W $end
$var reg 1 p" q_np $end
$upscope $end
$scope module vc_Latch_ll $end
$var wire 1 q" clk $end
$var wire 1 r" d_p $end
$var parameter 32 s" W $end
$var reg 1 t" q_pn $end
$upscope $end
$scope module vc_RDFF_pf $end
$var wire 1 u" clk $end
$var wire 1 v" d_p $end
$var wire 1 w" reset_p $end
$var parameter 32 x" RESET_VALUE $end
$var parameter 32 y" W $end
$var reg 1 z" q_np $end
$upscope $end
$enddefinitions $end
$comment Show the parameter values. $end
$dumpall
b1 y"
b0 x"
b1 s"
b1 o"
b1 j"
b1 d"
b1 _"
b1 Z"
b1 U"
b1 Q"
b1010 M"
b0 L"
b1000011 J"
b10000000000 I"
b1010 H"
b100000 A"
b0 @"
b1000011 9"
b11 8"
b1 7"
06"
15"
b1000011 0"
b10000000000 /"
b11 ."
b1010 ("
b0 '"
b1000000 $"
b10000000000 #"
b1010 ""
b100000 y
b0 x
b1000000 q
b11 p
b1 o
0n
1m
b1000000 h
b10000000000 g
b11 f
b100 -
b11 ,
b0 +
b10 *
b1 )
$end
#0
$dumpvars
xz"
zw"
zv"
zu"
xt"
zr"
zq"
xp"
zn"
zm"
xl"
xk"
zi"
zh"
zg"
xf"
xe"
zc"
zb"
za"
x`"
z^"
z]"
z\"
x["
zY"
zX"
zW"
xV"
zT"
zS"
xR"
zP"
zO"
b0 N"
b1 K"
b0 G"
b1 F"
bx E"
0D"
0C"
b0 B"
b0 ?"
0>"
0="
b0 <"
b0 ;"
0:"
bx 4"
b0 3"
02"
bx 1"
bx -"
bx ,"
x+"
0*"
b0 )"
b1 &"
b10 %"
b0 !"
b1 ~
bx }
0|
0{
b0 z
b1 w
0v
0u
b10 t
b1 s
xr
b0 l
0k
bx j
bx i
bx e
0d
0c
bx b
xa
x`
x_
x^
bx ]
bx \
bx [
bx Z
bx Y
bx X
bx W
bx V
bx U
bx T
bx S
bx R
bx Q
bx P
bx O
bx N
bx M
bx L
xK
xJ
bx I
bx H
bx G
0F
bx E
bx D
bx C
bx B
0A
1@
bx ?
0>
x=
1<
bx ;
bx :
bx 9
bx 8
x7
06
b10 5
b0 4
13
b0 2
11
10
b11111100111111 /
b111010101101110011001000110010101100110011010010110111001100101011001000010000001100110011101010110111001100011 .
bz (
bz '
bz &
bz %
bz $
bz #
bz "
bz !
$end
#5
01
#10
0+"
b1 <"
11
#15
01
#20
b1 ;"
b1 ?"
xc
b0 s
b0 w
b10 <"
b0 t
11
#25
01
#30
0c
b1 t
11
#35
01
#40
b0 ;"
b0 ?"
xc
b1 <"
b0 t
11
#45
01
#50
0c
b1 s
b1 w
x+"
b10 t
b0 <"
11
#55
01
#60
0+"
xc
b0 s
b0 w
b1 <"
b0 t
11
#65
01
#70
11
#75
01
#80
x+"
0c
b0 <"
b1 t
11
#85
01
#90
xc
b0 t
11
#95
01
#100
x2"
xF
xD"
xC"
16
x:"
0>"
00
b0 9
b0 D
b0 H
b0 :
b0 E
b0 G
b0 8
b0 B
b0 I
0c
b1 s
b1 w
1d
0@
1*"
0<
b0 ;
b0 C
b0 -"
b0 1"
b0 ,"
b0 4"
b0 E"
b10 t
b1 4
11
b1 2
#105
01
#110
0:"
12"
1D"
1C"
1F
1+"
x|
x{
17
0K
xc
1>
b0 s
b0 w
xk
b0 t
11
#115
01
#120
0F
0D"
0C"
1>"
0|
0{
x7
xK
06
0+"
1:"
02"
0c
0>
0k
b1 <"
b1 t
11
#125
01
03
#130
xF
xD"
xC"
b1 s
b1 w
16
x+"
b11111111111111111111111111111111 ;"
b11111111111111111111111111111111 ?"
0:"
b10 t
1="
b10 <"
11
#135
01
#140
b0 s
b0 w
b1 <"
b1 t
11
#145
01
#150
11
#155
01
#160
b1 s
b1 w
b10 t
11
#165
01
#170
1D"
1C"
1F
1+"
0>"
x|
x{
17
0K
xc
1>
b0 s
b0 w
xk
12"
b0 t
b0 <"
11
#175
01
#180
b0 L
b0 T
0J
b1 9
b1 D
b1 H
b1 :
b1 E
b1 G
b0 ;"
b0 ?"
b0 S
b0 V
b0 W
b10 F"
b10 K"
b100000000000000000000000000000001 ;
b100000000000000000000000000000001 C
b100000000000000000000000000000001 -"
b100000000000000000000000000000001 1"
b100000000000000000000000000000001 ,"
b100000000000000000000000000000001 4"
b100000000000000000000000000000001 E"
b1 G"
b1 N"
0="
1^
b0 Y
b0 X
b0 Z
11
#185
01
#190
b1 L
b1 T
b1 R
b0 O
0F
0D"
0C"
1>"
b1 S
b1 Q
b0 N
b1 V
b1 W
06
0+"
1:"
02"
b11111111111111111111111111111111 :
b11111111111111111111111111111111 E
b11111111111111111111111111111111 G
1_
b0 [
b1 P
b0 M
b1 Y
b1 X
b1 <"
b11 F"
b11 K"
b1111111111111111111111111111111100000000000000000000000000000001 ;
b1111111111111111111111111111111100000000000000000000000000000001 C
b1111111111111111111111111111111100000000000000000000000000000001 -"
b1111111111111111111111111111111100000000000000000000000000000001 1"
b1111111111111111111111111111111100000000000000000000000000000001 ,"
b1111111111111111111111111111111100000000000000000000000000000001 4"
b1111111111111111111111111111111100000000000000000000000000000001 E"
b10 G"
b10 N"
11
#195
01
#200
1F
1D"
1C"
16
1+"
b11111111111111111111111111111111 ;"
b11111111111111111111111111111111 ?"
0:"
0>"
1="
0^
1`
b0 \
b1 [
11
#205
01
#210
0r
b1111111111111111111111111111111111111111111111111111111111111111 L
1k
1|
1{
1J
b1111111111111111111111111111111111111111111111111111111111111111 T
b11111111111111111111111111111111 R
1c
b1 S
b1 Q
b1 W
b0 ;"
b0 ?"
12"
b11111111111111111111111111111111 9
b11111111111111111111111111111111 D
b11111111111111111111111111111111 H
b1 :
b1 E
b1 G
1=
1a
0_
b0 e
b0 j
b0 }
b0 ?
b0 U
b0 ]
b0 b
b0 i
b1 \
1^
b11111111111111111111111111111111 P
b11111111111111111111111111111111 X
0="
b0 <"
b100 F"
b100 K"
b111111111111111111111111111111111 ;
b111111111111111111111111111111111 C
b111111111111111111111111111111111 -"
b111111111111111111111111111111111 1"
b111111111111111111111111111111111 ,"
b111111111111111111111111111111111 4"
b111111111111111111111111111111111 E"
b11 G"
b11 N"
11
#215
01
#220
b1111111111111111111111111111111111111111111111111111111111111111 L
b1111111111111111111111111111111111111111111111111111111111111111 T
0F
0D"
0C"
1>"
b1 W
b11111111111111111111111111111111 :
b11111111111111111111111111111111 E
b11111111111111111111111111111111 G
06
0+"
b1 ;"
b1 ?"
1:"
02"
b1 S
b1 Q
b0 N
b1 V
b101 F"
b101 K"
b1111111111111111111111111111111111111111111111111111111111111111 ;
b1111111111111111111111111111111111111111111111111111111111111111 C
b1111111111111111111111111111111111111111111111111111111111111111 -"
b1111111111111111111111111111111111111111111111111111111111111111 1"
b1111111111111111111111111111111111111111111111111111111111111111 ,"
b1111111111111111111111111111111111111111111111111111111111111111 4"
b1111111111111111111111111111111111111111111111111111111111111111 E"
b100 G"
b100 N"
b10 <"
b1 M
b11111111111111111111111111111111 Y
b0 P
b1 X
0`
1_
b1 e
b1 j
b1 }
b1 ?
b1 U
b1 ]
b1 b
b1 i
b1111111111111111111111111111111111111111111111111111111111111111 [
b10 ~
b10 &"
b1 !"
b1 )"
11
#225
01
#230
0|
0{
0k
0c
0>
b1 s
b1 w
b0 ;"
b0 ?"
b11 ~
b11 &"
b10 !"
b10 )"
b10 t
0=
0a
1`
b1111111111111111111111111111111111111111111111111111111111111111 \
0^
1="
b1 3"
b1 B"
11
#235
01
#240
16
b11111111111111111111111111111111 ;"
b11111111111111111111111111111111 ?"
0:"
07
1K
1v
b0 s
b0 w
1r
b1 <"
b0 3"
b0 B"
1=
1a
0_
b1111111111111111111111111111111111111111111111111111111111111111 e
b1111111111111111111111111111111111111111111111111111111111111111 j
b1111111111111111111111111111111111111111111111111111111111111111 }
b1111111111111111111111111111111111111111111111111111111111111111 ?
b1111111111111111111111111111111111111111111111111111111111111111 U
b1111111111111111111111111111111111111111111111111111111111111111 ]
b1111111111111111111111111111111111111111111111111111111111111111 b
b1111111111111111111111111111111111111111111111111111111111111111 i
b1 t
11
#245
01
#250
1D"
1C"
1F
1+"
0>"
1|
1{
17
0K
0v
1c
1>
b11111111111111111111111111111111 s
b11111111111111111111111111111111 w
0r
1u
b10 t
b10 <"
11
#255
01
#260
b1 R
b1 L
0D"
0C"
b1 T
0F
0+"
0J
0|
0{
07
1K
b11 9
b11 D
b11 H
b1000 :
b1000 E
b1000 G
02"
b0 ;"
b0 ?"
1:"
1>"
b1 S
b1 Q
b1 W
0c
0>
b0 s
b0 w
1r
1v
b110 F"
b110 K"
b100000000000000000000000000000000011 ;
b100000000000000000000000000000000011 C
b100000000000000000000000000000000011 -"
b100000000000000000000000000000000011 1"
b100000000000000000000000000000000011 ,"
b100000000000000000000000000000000011 4"
b100000000000000000000000000000000011 E"
b101 G"
b101 N"
b0 <"
0="
1^
b1 P
b0 M
b11111111111111111111111111111111 X
0`
b1 t
0u
b100 ~
b100 &"
b11 !"
b11 )"
11
#265
01
#270
1D"
1C"
1F
1+"
0>"
1|
1{
17
0K
0v
1c
1>
b11111111111111111111111111111111 s
b11111111111111111111111111111111 w
0r
1k
b11111111111111111111111111111111 ;"
b11111111111111111111111111111111 ?"
0:"
1u
b0 t
1="
b10 <"
11
#275
01
#280
b11000 L
b10 O
b11000 T
b10 R
0F
0D"
0C"
b10 N
b11 V
b11000 S
b10 Q
b1000 W
0|
0{
b1000 9
b1000 D
b1000 H
b11111111111111111111111111111000 :
b11111111111111111111111111111000 E
b11111111111111111111111111111000 G
06
0+"
b0 ;"
b0 ?"
1:"
1>"
0k
0c
0>
b0 s
b0 w
b111 F"
b111 K"
b1111111111111111111111111111100000000000000000000000000000001000 ;
b1111111111111111111111111111100000000000000000000000000000001000 C
b1111111111111111111111111111100000000000000000000000000000001000 -"
b1111111111111111111111111111100000000000000000000000000000001000 1"
b1111111111111111111111111111100000000000000000000000000000001000 ,"
b1111111111111111111111111111100000000000000000000000000000001000 4"
b1111111111111111111111111111100000000000000000000000000000001000 E"
b110 G"
b110 N"
b1 <"
0="
b11 Y
b10 P
b10 M
b1000 X
0=
0a
1_
b1 [
b1 t
0u
b101 ~
b101 &"
b100 !"
b100 )"
11
#285
01
#290
1F
1D"
1C"
0>"
16
1+"
b11111111111111111111111111111111 ;"
b11111111111111111111111111111111 ?"
0:"
12"
1`
b1 \
b11000 [
0^
1="
b0 <"
11
#295
01
#300
b1111111111111111111111111111111111111111111111111111111111000000 L
1:"
1>"
0D"
0C"
1J
b1111111111111111111111111111111111111111111111111111111111000000 T
b11111111111111111111111111111111 R
b0 O
0F
b11111111111111111111111111111000 9
b11111111111111111111111111111000 D
b11111111111111111111111111111000 H
02"
06
0+"
b1 ;"
b1 ?"
b0 N
b1000 V
b1000000 S
b1 Q
b1000 W
07
1K
1r
1v
b1000 F"
b1000 K"
b1111111111111111111111111111100011111111111111111111111111111000 ;
b1111111111111111111111111111100011111111111111111111111111111000 C
b1111111111111111111111111111100011111111111111111111111111111000 -"
b1111111111111111111111111111100011111111111111111111111111111000 1"
b1111111111111111111111111111100011111111111111111111111111111000 ,"
b1111111111111111111111111111100011111111111111111111111111111000 4"
b1111111111111111111111111111100011111111111111111111111111111000 E"
b111 G"
b111 N"
b10 <"
0="
1^
b0 M
b1000 Y
b11111111111111111111111111111 P
b11111111111111111111111111111000 X
1=
1a
0_
b1 e
b1 j
b1 }
b1 ?
b1 U
b1 ]
b1 b
b1 i
b11000 \
11
#305
01
#310
12"
1|
1{
17
0K
0v
1c
1>
b11111111111111111111111111111111 s
b11111111111111111111111111111111 w
0r
b0 ;"
b0 ?"
1u
b10 t
1="
b1 3"
b1 B"
b0 <"
11
#315
01
#320
0D"
0C"
0|
0{
07
1K
02"
1>"
16
0+"
b11111111111111111111111111111111 ;"
b11111111111111111111111111111111 ?"
0:"
0c
0>
b1 s
b1 w
1r
1v
b1 <"
b0 3"
b0 B"
0^
0`
1_
b11000 e
b11000 j
b11000 }
b11000 ?
b11000 U
b11000 ]
b11000 b
b11000 i
b1111111111111111111111111111111111111111111111111111111111000000 [
0u
b110 ~
b110 &"
b101 !"
b101 )"
11
#325
01
#330
b0 s
b0 w
1k
1u
b1 l
b1 z
b0 t
b0 <"
11
#335
01
#340
12"
1D"
1C"
1F
1+"
0>"
1|
1{
17
0K
0v
1c
1>
b11111111111111111111111111111111 s
b11111111111111111111111111111111 w
0r
b0 l
b0 z
11
#345
01
#350
b1000000 L
b1000000 T
b1 R
b0 O
0|
0{
0J
0F
0D"
0C"
0k
0c
0>
b0 s
b0 w
b1000000 S
b1 Q
b0 N
b1000 V
1>"
06
0+"
b0 ;"
b0 ?"
1:"
02"
b10000000000000000000000000000 9
b10000000000000000000000000000 D
b10000000000000000000000000000 H
b1101111010101101101111101110 :
b1101111010101101101111101110 E
b1101111010101101101111101110 G
b111 ~
b111 &"
b110 !"
b110 )"
0u
b1 t
0=
0a
1`
0_
b1111111111111111111111111111111111111111111111111111111111000000 \
1^
b1 P
b11111111111111111111111111111000 Y
0="
b1 <"
b1001 F"
b1001 K"
b110111101010110110111110111000010000000000000000000000000000 ;
b110111101010110110111110111000010000000000000000000000000000 C
b110111101010110110111110111000010000000000000000000000000000 -"
b110111101010110110111110111000010000000000000000000000000000 1"
b110111101010110110111110111000010000000000000000000000000000 ,"
b110111101010110110111110111000010000000000000000000000000000 4"
b110111101010110110111110111000010000000000000000000000000000 E"
b1000 G"
b1000 N"
11
#355
01
#360
1F
1D"
1C"
1k
1|
1{
16
1+"
b11111111111111111111111111111111 ;"
b11111111111111111111111111111111 ?"
0:"
0>"
0v
1c
1>
0r
1="
0^
1=
1a
0`
1_
b1111111111111111111111111111111111111111111111111111111111000000 e
b1111111111111111111111111111111111111111111111111111111111000000 j
b1111111111111111111111111111111111111111111111111111111111000000 }
b1111111111111111111111111111111111111111111111111111111111000000 ?
b1111111111111111111111111111111111111111111111111111111111000000 U
b1111111111111111111111111111111111111111111111111111111111000000 ]
b1111111111111111111111111111111111111111111111111111111111000000 b
b1111111111111111111111111111111111111111111111111111111111000000 i
b1000000 [
b0 t
11
#365
01
#370
b0 R
b11011110101011011011111011100000000000000000000000000000 L
b11011110101011011011111011100000000000000000000000000000 T
0|
0{
b10000000000000000000000000000 V
b1101111010101101101111101110 O
b11011110101011011011111011100000000000000000000000000000 S
b0 Q
b1101111010101101101111101110 N
b1101111010101101101111101110 W
0F
0D"
0C"
0k
0c
0>
b1 s
b1 w
06
0+"
b0 ;"
b0 ?"
1:"
1>"
b11011110101011011011111011101111 :
b11011110101011011011111011101111 E
b11011110101011011011111011101111 G
b1000 ~
b1000 &"
b111 !"
b111 )"
b10 t
0=
0a
1`
0_
b1000000 \
1^
b10000000000000000000000000000 Y
b0 P
b1101111010101101101111101110 M
b1101111010101101101111101110 X
0="
b1010 F"
b1010 K"
b1101111010101101101111101110111100010000000000000000000000000000 ;
b1101111010101101101111101110111100010000000000000000000000000000 C
b1101111010101101101111101110111100010000000000000000000000000000 -"
b1101111010101101101111101110111100010000000000000000000000000000 1"
b1101111010101101101111101110111100010000000000000000000000000000 ,"
b1101111010101101101111101110111100010000000000000000000000000000 4"
b1101111010101101101111101110111100010000000000000000000000000000 E"
b1001 G"
b1001 N"
11
#375
01
#380
16
b11111111111111111111111111111111 ;"
b11111111111111111111111111111111 ?"
0:"
07
1K
1r
1v
1="
0^
1=
1a
0`
1_
b1000000 e
b1000000 j
b1000000 }
b1000000 ?
b1000000 U
b1000000 ]
b1000000 b
b1000000 i
b11011110101011011011111011100000000000000000000000000000 [
11
#385
01
#390
b0 s
b0 w
1u
b1 l
b1 z
b0 <"
11
#395
01
#400
1D"
1C"
1F
1+"
0>"
1|
1{
17
0K
0v
1c
1>
b11111111111111111111111111111111 s
b11111111111111111111111111111111 w
0r
b10 <"
b0 l
b0 z
11
#405
01
#410
b1111110111101010110110111110111011110000000000000000000000000000 L
0|
0{
1J
b1111110111101010110110111110111011110000000000000000000000000000 T
b11111111111111111111111111111110 R
b11111110101011011011111011101111 O
0F
0c
b0 s
b0 w
b1000010101001001000001000100010000000000000000000000000000 S
b10 Q
b1010100100100000100010001 N
b100001010100100100000100010001 W
bx 9
bx D
bx H
bx :
bx E
bx G
bx 8
bx B
bx I
0D"
0C"
06
0+"
b1 ;"
b1 ?"
b1001 ~
b1001 &"
b1000 !"
b1000 )"
0u
b0 t
0=
0a
1`
0_
b11011110101011011011111011100000000000000000000000000000 \
1^
b1101 P
b1110101011011011111011101111 M
b11011110101011011011111011101111 X
0="
b1011 F"
b1011 K"
bx ;
bx C
bx -"
bx 1"
bx ,"
bx 4"
bx E"
0*"
1<
b1010 G"
b1010 N"
11
#415
01
#420
b0 ;"
b0 ?"
07
1K
1v
0>
b1 s
b1 w
1r
b1 <"
0^
1=
1a
0`
1_
b11011110101011011011111011100000000000000000000000000000 e
b11011110101011011011111011100000000000000000000000000000 j
b11011110101011011011111011100000000000000000000000000000 }
b11011110101011011011111011100000000000000000000000000000 ?
b11011110101011011011111011100000000000000000000000000000 U
b11011110101011011011111011100000000000000000000000000000 ]
b11011110101011011011111011100000000000000000000000000000 b
b11011110101011011011111011100000000000000000000000000000 i
b1111110111101010110110111110111011110000000000000000000000000000 [
b10 t
11
#425
01
#430
b0 s
b0 w
1k
b1 ;"
b1 ?"
1u
b1 l
b1 z
b0 t
b10 <"
11
#435
01
#440
1+"
1|
1{
17
0K
b0 ;"
b0 ?"
0v
1c
1>
b11111111111111111111111111111111 s
b11111111111111111111111111111111 w
0r
b0 <"
b0 l
b0 z
11
#445
01
#450
0k
0|
0{
0c
b0 s
b0 w
0+"
b1010 ~
b1010 &"
b1001 !"
b1001 )"
0u
0=
0a
1`
0_
b1111110111101010110110111110111011110000000000000000000000000000 \
b1 <"
11
#455
01
#460
1k
1|
1{
1c
0r
0v
1=
1a
0`
b1111110111101010110110111110111011110000000000000000000000000000 e
b1111110111101010110110111110111011110000000000000000000000000000 j
b1111110111101010110110111110111011110000000000000000000000000000 }
b1111110111101010110110111110111011110000000000000000000000000000 ?
b1111110111101010110110111110111011110000000000000000000000000000 U
b1111110111101010110110111110111011110000000000000000000000000000 ]
b1111110111101010110110111110111011110000000000000000000000000000 b
b1111110111101010110110111110111011110000000000000000000000000000 i
11
#465
01
#470
0{
0|
10
0k
0c
0>
b1 s
b1 w
b1 ;"
b1 ?"
b1011 ~
b1011 &"
0d
1@
b1010 !"
b1010 )"
b10 t
0=
0a
b10 <"
11
#475
01
#480
b0 ;"
b0 ?"
b0 s
b0 w
b1 <"
b0 t
11
#485
01
#490
b1 s
b1 w
b10 t
11
#495
01
#500
b1 ;"
b1 ?"
b10 <"
11
#505
01
#510
b0 s
b0 w
b1 t
11
#515
01
#520
b0 ;"
b0 ?"
b1 <"
b0 t
11
#525
01
#530
11
#535
01
#540
1+"
b1 s
b1 w
b0 <"
b10 t
11
#545
01
#550
b0 s
b0 w
b1 t
11
#555
01
#560
0+"
b1 ;"
b1 ?"
b10 <"
b0 t
11
#565
01
#570
11
#575
01
#580
b1 t
11
#585
01
#590
b0 ;"
b0 ?"
b1 <"
11
#595
01
#600
b1 ;"
b1 ?"
b1 s
b1 w
b10 <"
b10 t
11
#605
01
#610
b0 ;"
b0 ?"
b1 <"
11
#615
01
#620
b1 ;"
b1 ?"
b0 s
b0 w
b10 <"
b1 t
11
#625
01
#630
1+"
b0 ;"
b0 ?"
b0 <"
11
#635
01
#640
0+"
b1 ;"
b1 ?"
b10 <"
11
#645
01
#650
1+"
b0 ;"
b0 ?"
b0 t
b0 <"
11
#655
01
#660
0+"
b1 ;"
b1 ?"
b1 s
b1 w
b10 <"
b10 t
11
#665
01
#670
b0 s
b0 w
b0 ;"
b0 ?"
b0 t
b1 <"
11
#675
01
#680
1+"
b1 s
b1 w
b0 <"
b10 t
11
#685
01
#690
b0 s
b0 w
0+"
b1 ;"
b1 ?"
b1 t
b10 <"
11
#695
01
#700
b0 ;"
b0 ?"
b1 s
b1 w
b1 <"
b10 t
11
#705
01
#710
b0 s
b0 w
1+"
b1 t
b0 <"
11
#715
01
#720
0+"
b1 <"
11
#725
01
#730
11
#735
01
#740
1+"
b0 <"
b0 t
11
#745
01
#750
b1 t
11
#755
01
#760
b0 t
11
#765
01
#770
0+"
b1 ;"
b1 ?"
b10 <"
11
#775
01
#780
b0 ;"
b0 ?"
b1 s
b1 w
b1 <"
b10 t
11
#785
01
#790
b0 s
b0 w
b1 ;"
b1 ?"
b1 t
b10 <"
11
#795
01
#800
b0 ;"
b0 ?"
b1 <"
11
#805
01
#810
b1 ;"
b1 ?"
b10 <"
11
#815
01
#820
b0 ;"
b0 ?"
b1 s
b1 w
b1 <"
b10 t
11
#825
01
#830
11
#835
01
#840
b0 s
b0 w
b0 t
11
#845
01
#850
1+"
b0 <"
11
#855
01
#860
b1 s
b1 w
b10 t
11
#865
01
